[  
   {  
      "approvememberlist":{  
         "group_name":"ghh",
         "group_Id":"2",
         "limit_county_name":"22"
      }
   },
   {  
      "approvememberlist":{  
         "group_name":"3",
         "group_Id":"3",
         "limit_county_name":"3"
      }
   },
   {  
      "approvememberlist":{  
         "group_name":"121",
         "group_Id":"212",
         "limit_county_name":"1"
      }
   }
]